{
  "project_info": {
    "project_number": "951342316374",
    "firebase_url": "https://adoteme-7cb76.firebaseio.com",
    "project_id": "adoteme-7cb76",
    "storage_bucket": "adoteme-7cb76.appspot.com"
  },
  "client": [
    {
      "client_info": {
        "mobilesdk_app_id": "1:951342316374:android:44d8af85dc24e8fc",
        "android_client_info": {
          "package_name": "br.com.arthurcvm.adoteme"
        }
      },
      "oauth_client": [
        {
          "client_id": "951342316374-osmbg7qq8ru82m84c8stcgju5sm125m0.apps.googleusercontent.com",
          "client_type": 1,
          "android_info": {
            "package_name": "br.com.arthurcvm.adoteme",
            "certificate_hash": "620d6a3b934269ef038f0b3c90a39e5307ef6448"
          }
        },
        {
          "client_id": "951342316374-ocdskmkla38s305k7q34dfmu9sqfceao.apps.googleusercontent.com",
          "client_type": 3
        }
      ],
      "api_key": [
        {
          "current_key": "AIzaSyAt__iiYbDEcKLAP8DmZZOVmk4N3O54tVg"
        }
      ],
      "services": {
        "analytics_service": {
          "status": 1
        },
        "appinvite_service": {
          "status": 2,
          "other_platform_oauth_client": [
            {
              "client_id": "951342316374-ocdskmkla38s305k7q34dfmu9sqfceao.apps.googleusercontent.com",
              "client_type": 3
            }
          ]
        },
        "ads_service": {
          "status": 2
        }
      }
    }
  ],
  "configuration_version": "1"
}